{
  "images" : [
    {
      "idiom" : "universal",
      "scale" : "1x",
      "filename" : "article-1303902954267-09a2c636000005dc-77730_466x424.jpg"
    },
    {
      "idiom" : "universal",
      "scale" : "2x"
    },
    {
      "idiom" : "universal",
      "scale" : "3x"
    }
  ],
  "info" : {
    "version" : 1,
    "author" : "xcode"
  }
}